0.00; 1.000
0.01; 1.000
0.02; 1.000
0.03; 1.000
0.04; 1.000
0.05; 1.000
0.06; 1.000
0.07; 1.000
0.08; 1.000
0.09; 1.000
0.10; 1.000
0.11; 1.000
0.12; 1.000
0.13; 1.000
0.14; 1.000
0.15; 1.000
0.16; 1.000
0.17; 1.000
0.18; 1.000
0.19; 1.000
0.20; 1.000
0.21; 1.000
0.22; 1.000
0.23; 0.999
0.24; 1.000
0.25; 0.998
0.26; 0.998
0.27; 0.994
0.28; 0.993
0.29; 0.988
0.30; 0.977
0.31; 0.972
0.32; 0.951
0.33; 0.930
0.34; 0.912
0.35; 0.870
0.36; 0.845
0.37; 0.776
0.38; 0.711
0.39; 0.648
0.40; 0.592
0.41; 0.499
0.42; 0.447
0.43; 0.365
0.44; 0.299
0.45; 0.240
0.46; 0.184
0.47; 0.129
0.48; 0.106
0.49; 0.070
0.50; 0.055
0.51; 0.039
0.52; 0.029
0.53; 0.023
0.54; 0.010
0.55; 0.008
0.56; 0.005
0.57; 0.003
0.58; 0.001
0.59; 0.001
0.60; 0.002
0.61; 0.000
0.62; 0.000
0.63; 0.000
0.64; 0.000
0.65; 0.000
0.66; 0.000
0.67; 0.000
0.68; 0.000
0.69; 0.000
0.70; 0.000
0.71; 0.000
0.72; 0.000
0.73; 0.000
0.74; 0.000
0.75; 0.000
0.76; 0.000
0.77; 0.000
0.78; 0.000
0.79; 0.000
0.80; 0.000
0.81; 0.000
0.82; 0.000
0.83; 0.000
0.84; 0.000
0.85; 0.000
0.86; 0.000
0.87; 0.000
0.88; 0.000
0.89; 0.000
0.90; 0.000
0.91; 0.000
0.92; 0.000
0.93; 0.000
0.94; 0.000
0.95; 0.000
0.96; 0.000
0.97; 0.000
0.98; 0.000
0.99; 0.000
1.00; 0.000
